<svg width="160" height="161" viewBox="0 0 160 161" fill="none" xmlns="http://www.w3.org/2000/svg">
<path d="M160 80.1333C160 124.316 124.183 160.133 80 160.133C35.8172 160.133 0 124.316 0 80.1333C0 35.9505 35.8172 0.133301 80 0.133301C124.183 0.133301 160 35.9505 160 80.1333Z" fill="#F0F9FE"/>
<mask id="mask0" mask-type="alpha" maskUnits="userSpaceOnUse" x="0" y="0" width="160" height="161">
<path d="M160 80.1333C160 124.316 124.183 160.133 80 160.133C35.8172 160.133 0 124.316 0 80.1333C0 35.9505 35.8172 0.133301 80 0.133301C124.183 0.133301 160 35.9505 160 80.1333Z" fill="#F0F9FE"/>
</mask>
<g mask="url(#mask0)">
<path d="M20.2666 103.6H84.2666V110H20.2666V103.6Z" fill="#BDE4F9"/>
<path d="M84.2666 64.1333H137.6V103.6H84.2666V64.1333Z" fill="#BDE4F9"/>
<path d="M43.7334 64.6669C43.7334 56.1249 50.6581 49.2002 59.2001 49.2002H122.133C130.675 49.2002 137.6 56.1249 137.6 64.6669V64.6669C137.6 73.2089 130.675 80.1335 122.133 80.1335H59.2001C50.6581 80.1335 43.7334 73.2089 43.7334 64.6669V64.6669Z" fill="#BDE4F9"/>
<path d="M37.3335 72.667H84.2668V103.6H37.3335V72.667Z" fill="#629FC0"/>
<path d="M84.2668 72.6669C84.2668 85.6271 73.7604 96.1335 60.8002 96.1335C47.8399 96.1335 37.3335 85.6271 37.3335 72.6669C37.3335 59.7066 47.8399 49.2002 60.8002 49.2002C73.7604 49.2002 84.2668 59.7066 84.2668 72.6669Z" fill="#629FC0"/>
<path d="M125.333 90.5332L133.185 73.7332H117.481L125.333 90.5332Z" fill="#96C9E4"/>
<path d="M101.333 73.7334H121.6V78.0001H101.333V73.7334Z" fill="#96C9E4"/>
<path d="M102.4 75.8668C102.4 79.4014 99.5347 82.2668 96.0001 82.2668C92.4655 82.2668 89.6001 79.4014 89.6001 75.8668C89.6001 72.3322 92.4655 69.4668 96.0001 69.4668C99.5347 69.4668 102.4 72.3322 102.4 75.8668Z" fill="#96C9E4"/>
<path d="M98.1334 75.8667C98.1334 77.0449 97.1782 78.0001 96 78.0001C94.8218 78.0001 93.8667 77.0449 93.8667 75.8667C93.8667 74.6885 94.8218 73.7334 96 73.7334C97.1782 73.7334 98.1334 74.6885 98.1334 75.8667Z" fill="#609DBE"/>
<path d="M89.6001 111.067H96.0001V164.401H89.6001V111.067Z" fill="#BDE4F9"/>
<path d="M96 111.067H105.6V164.401H96V111.067Z" fill="#96C9E4"/>
<path d="M105.6 103.601V114.315L95.9996 111.067H89.5996V103.601H105.6Z" fill="#629FC0"/>
</g>
</svg>
